##<Estacion Numero> = <user>/<pass> - <Estacion Nombre>
## ej.
## 1 = 0000114330/aaa12345 - AUTOSERVICIO DE GUERRERO NEGRO, SA DE CV
##

1 = 0000114432/pin23458 - AUTOSERVICIO PINO PALLAS, SA DE CV  I
2 = 0000111910/col71469 - COMBUSTIBLES Y LUBRICANTES INSURGENTES, SA DE CV
3 = 0000113076/ros17699 - SERVICIO SANTA ROSALIA, SA DE CV
4 = 0000114330/agn44316 - AUTOSERVICIO DE GUERRERO NEGRO, SA DE CV
5 = 0000112395/bou30405 - COMBUSTIBLES BOULEVARD, SA DE CV
6 = 0000110597/qui60008 - SERVICIO QUINAGUI, SA DE CV
7 = 0000114857/con20304 - SERVICIO TRUCK STOP CONSTITUCION, SA DE CV
8 = 0000111129/mat54312 - SERVICIO MATANCITAS, SA DE CV
9 = 0000114933/aab13141 - AUTOSERVICIO BALMACEDA, SA DE CV
10 = 0000115031/bon98653 - AUTOSERVICIO VILLA BONITA, SA DE CV
11 = 0000114789/lib10203 - TRUCK STOP LIBRAMIENTO, SA DE CV
12 = 0000115098/danza201 - DANZANTE, SA DE CV
13 = 0000115246/pin15945 - AUTOSERVICIO PINO PALLAS, SA DE CV  II
14 = 0000115271/viz76764 - SERVICIO VIZCAINO, SA DE CV
15 = 0000106272/asa20145 - SERVICIO SAN ANTONIO, SA DE CV
16 = 0000114063/salm6105 - ABREOJOS
17 = 0000115896/tob76444 - SERVICIO LA TOBA, SA DE CV
18 = 0000116293/squ99102 - SERVICIO QUINAGUI, S.A. DE C.V.
31 = 0000202340/cbs51576 - CBS
