C:\Users\Angel\Documents\workspace-sts-3.9.2.RELEASE\scrap-saldos\src\main\java\update\Update.java
C:\Users\Angel\Documents\workspace-sts-3.9.2.RELEASE\scrap-saldos\src\main\java\pojo\Estacion.java
C:\Users\Angel\Documents\workspace-sts-3.9.2.RELEASE\scrap-saldos\src\main\java\map\MapSaldoDetallado.java
C:\Users\Angel\Documents\workspace-sts-3.9.2.RELEASE\scrap-saldos\src\main\java\process\Choferes.java
C:\Users\Angel\Documents\workspace-sts-3.9.2.RELEASE\scrap-saldos\src\main\java\map\MapTipoDocumento.java
C:\Users\Angel\Documents\workspace-sts-3.9.2.RELEASE\scrap-saldos\src\main\java\pojo\Trafico.java
C:\Users\Angel\Documents\workspace-sts-3.9.2.RELEASE\scrap-saldos\src\main\java\process\Estaciones.java
C:\Users\Angel\Documents\workspace-sts-3.9.2.RELEASE\scrap-saldos\src\main\java\process\FindChofer.java
C:\Users\Angel\Documents\workspace-sts-3.9.2.RELEASE\scrap-saldos\src\main\java\process\ProcessSaldoAnalitico.java
C:\Users\Angel\Documents\workspace-sts-3.9.2.RELEASE\scrap-saldos\src\main\java\map\MapSaldoAnalitico.java
C:\Users\Angel\Documents\workspace-sts-3.9.2.RELEASE\scrap-saldos\src\main\java\map\MapDetalleEstacion.java
C:\Users\Angel\Documents\workspace-sts-3.9.2.RELEASE\scrap-saldos\src\main\java\pojo\Chofer.java
C:\Users\Angel\Documents\workspace-sts-3.9.2.RELEASE\scrap-saldos\src\main\java\pojo\Saldo.java
C:\Users\Angel\Documents\workspace-sts-3.9.2.RELEASE\scrap-saldos\src\main\java\process\DataScrap.java
C:\Users\Angel\Documents\workspace-sts-3.9.2.RELEASE\scrap-saldos\src\main\java\map\MapRemisionesProducto.java
C:\Users\Angel\Documents\workspace-sts-3.9.2.RELEASE\scrap-saldos\src\main\java\update\UpdateVencimientos.java
C:\Users\Angel\Documents\workspace-sts-3.9.2.RELEASE\scrap-saldos\src\main\java\pojo\Registro.java
C:\Users\Angel\Documents\workspace-sts-3.9.2.RELEASE\scrap-saldos\src\main\java\pojo\SaldoAnalitico.java
C:\Users\Angel\Documents\workspace-sts-3.9.2.RELEASE\scrap-saldos\src\main\java\update\UpdateSaldoAnalitico.java
C:\Users\Angel\Documents\workspace-sts-3.9.2.RELEASE\scrap-saldos\src\main\java\process\Analitico2Final.java
C:\Users\Angel\Documents\workspace-sts-3.9.2.RELEASE\scrap-saldos\src\main\java\process\DateQuery.java
C:\Users\Angel\Documents\workspace-sts-3.9.2.RELEASE\scrap-saldos\src\main\java\file\DataReader.java
C:\Users\Angel\Documents\workspace-sts-3.9.2.RELEASE\scrap-saldos\src\main\java\update\UpdateTrafico.java
C:\Users\Angel\Documents\workspace-sts-3.9.2.RELEASE\scrap-saldos\src\main\java\starter\ControlApp.java
C:\Users\Angel\Documents\workspace-sts-3.9.2.RELEASE\scrap-saldos\src\main\java\process\ParseCurrencyNumber.java
C:\Users\Angel\Documents\workspace-sts-3.9.2.RELEASE\scrap-saldos\src\main\java\process\ConnectURL.java
C:\Users\Angel\Documents\workspace-sts-3.9.2.RELEASE\scrap-saldos\src\main\java\pojo\Login.java
C:\Users\Angel\Documents\workspace-sts-3.9.2.RELEASE\scrap-saldos\src\main\java\map\MapRemision.java
C:\Users\Angel\Documents\workspace-sts-3.9.2.RELEASE\scrap-saldos\src\main\java\map\MapTrafico.java
C:\Users\Angel\Documents\workspace-sts-3.9.2.RELEASE\scrap-saldos\src\main\java\pojo\RemisionesProducto.java
C:\Users\Angel\Documents\workspace-sts-3.9.2.RELEASE\scrap-saldos\src\main\java\pojo\Remision.java
C:\Users\Angel\Documents\workspace-sts-3.9.2.RELEASE\scrap-saldos\src\main\java\update\UpdateDetalleEstacion.java
C:\Users\Angel\Documents\workspace-sts-3.9.2.RELEASE\scrap-saldos\src\main\java\pojo\SaldoDetallado.java
C:\Users\Angel\Documents\workspace-sts-3.9.2.RELEASE\scrap-saldos\src\main\java\pojo\SaldoFinal.java
C:\Users\Angel\Documents\workspace-sts-3.9.2.RELEASE\scrap-saldos\src\main\java\pojo\DetalleEstacion.java
C:\Users\Angel\Documents\workspace-sts-3.9.2.RELEASE\scrap-saldos\src\main\java\pojo\TipoDocumento.java
C:\Users\Angel\Documents\workspace-sts-3.9.2.RELEASE\scrap-saldos\src\main\java\starter\StartApplication.java
